<?xml version="1.0" encoding="utf-8"?>
<!-- Generator: Adobe Illustrator 23.0.2, SVG Export Plug-In . SVG Version: 6.00 Build 0)  -->
<svg version="1.1" id="Capa_5_copia" xmlns="http://www.w3.org/2000/svg" xmlns:xlink="http://www.w3.org/1999/xlink" x="0px"
	 y="0px" viewBox="0 0 512 512" style="enable-background:new 0 0 512 512;" xml:space="preserve">
<style type="text/css">
	.st0{fill:#E8222D;}
	.st1{fill:#D3E6F8;}
	.st2{fill:#6D6D6D;}
</style>
<polygon class="st0" points="288.3,252.3 312.5,227.2 347.7,259.7 344.2,300.8 "/>
<g>
	<g id="C01_2_">
		<polygon class="st0" points="73.7,461 73.7,58.1 52.8,58.1 52.8,479.1 335.5,479.1 335.5,461 		"/>
	</g>
	<g id="C02_4_">
		<g>
			<path class="st1" d="M441.1,226.2"/>
			<g>
				<path class="st2" d="M368,416.7c-5,0-9,4-9,9s4,9,9,9s9-4,9-9S373,416.7,368,416.7z"/>
			</g>
		</g>
	</g>
</g>
<path class="st2" d="M459.3,391.7H452v-17.9l8.6-24.9c1.2-3.7,1.9-7.7,1.9-11.7v-97.3c0-11.8-9.7-21.5-21.5-21.5
	c-3.1,0-6,0.7-8.7,1.8c-3.6-6.6-10.7-11-18.7-11c-5.2,0-10,1.8-13.7,5c-3.7-3.1-8.5-5-13.7-5c-3.1,0-6,0.7-8.7,1.8
	c-3.6-6.6-10.7-11-18.7-11c-0.8,0-1.5,0-2.3,0.1l0.1-174.7H69.8V50H45v436.5h414.3c4.3,0,7.7-3.5,7.7-7.7v-79.5
	C467.1,395.2,463.6,391.7,459.3,391.7z M348.3,314c2.8-1.2,4.8-4.1,4.8-7.2v-85.3c0-3.3,2.6-5.9,5.9-5.9c3.3,0.1,5.9,2.8,5.9,6v35.7
	c0,4.3,3.5,7.7,7.7,7.7c4.3,0,7.7-3.5,7.7-7.7v-26.6c0-3.3,2.6-5.9,5.9-5.9s5.9,2.6,5.9,5.9v26.6c0,4.3,3.5,7.7,7.7,7.7
	c4.3,0,7.7-3.5,7.7-7.7v-26.6c0-3.3,2.6-5.9,5.9-5.9s5.9,2.6,5.9,5.9v26.6c0,4.3,3.5,7.7,7.7,7.7c4.3,0,7.7-3.5,7.7-7.7v-17.5
	c0-3.3,2.6-5.9,5.9-5.9s5.9,2.6,5.9,5.9v97.3c0,2.3-0.3,4.4-1.1,6.6l-9.1,26.1c-0.3,0.8-0.5,1.7-0.5,2.5v19.3h-74V370
	c0-2-0.8-4.1-2.3-5.5l-24.8-25.4c-3.7-3.7-5.9-8.9-5.9-14.2v-23.3l10.8,10.7C342.1,314.5,345.4,315.2,348.3,314z M300.4,250.8
	l10.6-10.5l26.5,26.7v21.1L300.4,250.8z M332.1,471.3H60.4V65.8h9.2v396.3H332v9.2H332.1z M346.8,391.8h-7c-4.3,0-7.7,3.5-7.7,7.7
	v47.2H85.2V41.2h255.9v168.6c-2.3,3.4-3.5,7.4-3.5,11.8v23.3L322,229.3l0,0l0,0l-11-11.1c0,0,0,0.1-0.1,0.1l-8.2,8.2l-9.3-9.4
	c13.7-17,21.8-38.7,21.8-62.2c0-55-44.6-99.5-99.5-99.5c-55,0-99.5,44.6-99.5,99.5c0,55,44.6,99.5,99.5,99.5c23.4,0,45-8.1,62-21.7
	l9.3,9.3l-8.7,8.7l4.4,4.4l30.7,31v39c0,9.5,3.7,18.5,10.4,25.2l23.1,23.1L346.8,391.8L346.8,391.8z M215.7,238.1
	c-45.9,0-83.1-37.2-83.1-83.1s37.2-83.1,83.1-83.1s83.1,37.2,83.1,83.1C298.8,200.9,261.6,238.1,215.7,238.1z M451.6,471.4h-104
	v-64.2h103.9v64.2H451.6z"/>
<g>
	<path class="st0" d="M215.5,85.6c-38.1,0-68.9,30.8-68.9,68.9s30.8,68.9,68.9,68.9s68.9-30.8,68.9-68.9S253.5,85.6,215.5,85.6z
		 M215.5,206.7c-28.8,0-52.2-23.3-52.2-52.2s23.4-52.2,52.2-52.2s52.2,23.4,52.2,52.2S244.3,206.7,215.5,206.7z"/>
	<g>
		<path class="st2" d="M215.5,83.2c-39.3,0-71.3,32-71.3,71.3s32,71.3,71.3,71.3s71.3-32,71.3-71.3S254.8,83.2,215.5,83.2z
			 M215.5,221.1c-36.7,0-66.6-29.9-66.6-66.6S178.8,88,215.5,88s66.6,29.9,66.6,66.6S252.2,221.1,215.5,221.1z"/>
		<path class="st2" d="M215.5,100c-30.1,0-54.6,24.5-54.6,54.6s24.5,54.6,54.6,54.6s54.6-24.5,54.6-54.6
			C270,124.4,245.6,100,215.5,100z M215.5,204.3c-27.5,0-49.8-22.4-49.8-49.8s22.4-49.8,49.8-49.8s49.8,22.4,49.8,49.8
			S242.9,204.3,215.5,204.3z"/>
		<polygon class="st2" points="235.7,123.6 215.5,143.7 195.3,123.6 184.5,134.3 204.7,154.5 184.5,174.7 195.3,185.5 215.5,165.3 
			235.7,185.5 246.4,174.7 226.3,154.5 246.4,134.3 		"/>
	</g>
</g>
<g>
	<polygon class="st2" points="172.4,329.4 172.4,315.6 164.4,315.6 164.4,329.4 141.6,329.4 172.1,290.9 162.7,290.9 130.6,331.1 
		130.6,336.9 164.2,336.9 164.2,352.5 172.4,352.5 172.4,336.9 184.3,336.9 184.3,329.4 	"/>
	<path class="st2" d="M214.7,290.4c-14.8,0-24.8,12.6-24.8,31.3s10,31.3,24.8,31.3c14.9,0,24.8-12.6,24.8-31.3
		S229.5,290.4,214.7,290.4z M214.7,345.4c-10.2,0-16.5-9.1-16.5-23.7s6.3-23.7,16.5-23.7s16.5,9.1,16.5,23.7
		S224.9,345.4,214.7,345.4z"/>
	<polygon class="st2" points="287.1,329.4 287.1,315.6 279.1,315.6 279.1,329.4 256.3,329.4 286.8,290.9 277.4,290.9 245.3,331.1 
		245.3,336.9 278.9,336.9 278.9,352.5 287.1,352.5 287.1,336.9 299,336.9 299,329.4 	"/>
</g>
</svg>
