<?xml version="1.0" encoding="utf-8"?>
<!-- Generator: Adobe Illustrator 23.0.2, SVG Export Plug-In . SVG Version: 6.00 Build 0)  -->
<svg version="1.1" id="Capa_10" xmlns="http://www.w3.org/2000/svg" xmlns:xlink="http://www.w3.org/1999/xlink" x="0px" y="0px"
	 viewBox="0 0 512 512" style="enable-background:new 0 0 512 512;" xml:space="preserve">
<style type="text/css">
	.st0{fill:#E8222D;}
	.st1{fill:#6D6D6D;}
</style>
<g>
	<polygon class="st0" points="155.4,34.5 155.4,61.2 133.7,61.2 133.7,81.4 359.4,81.4 359.4,451.1 378.6,451.1 378.6,423.5 
		400.6,423.5 400.6,34.5 	"/>
	<g>
		<g>
			<path class="st1" d="M208.1,160.3l16.3-16.3l-8.9-8.9l-7.4,7.4v-9.2h-79.2v79.4h79.2L208.1,160.3L208.1,160.3z M141.4,199.8
				v-53.5h54.1v8.8l-24.7,24.7l-13.9-13.9l-9.2,9.2l22.8,22.8l25-25v27h-54.1V199.8z"/>
			<rect x="231.9" y="133.3" class="st1" width="98.3" height="13"/>
			<rect x="231.9" y="199.8" class="st1" width="98.3" height="13"/>
			<rect x="231.9" y="167.1" class="st1" width="98.3" height="13"/>
			<path class="st1" d="M208.1,276.6l16.3-16.3l-8.9-8.9l-7.4,7.4v-9.2h-79.2V329h79.2L208.1,276.6L208.1,276.6z M141.4,316.1v-53.5
				h54.1v8.8l-24.7,24.7l-13.9-13.9l-9.2,9.2l22.8,22.8l25-25v27h-54.1V316.1z"/>
			<rect x="231.9" y="249.7" class="st1" width="98.3" height="13"/>
			<rect x="231.9" y="316.1" class="st1" width="98.3" height="13"/>
			<rect x="231.9" y="283.5" class="st1" width="98.3" height="13"/>
			<path class="st1" d="M208.1,392.9l16.3-16.3l-8.9-8.9l-7.4,7.4V366h-79.2v79.4h79.2L208.1,392.9L208.1,392.9z M141.4,432.5V379
				h54.1v8.8l-24.7,24.7l-13.9-13.9l-9.2,9.2l22.8,22.8l25-25v27h-54.1V432.5z"/>
			<rect x="231.9" y="366" class="st1" width="98.3" height="13"/>
			<rect x="231.9" y="432.5" class="st1" width="98.3" height="13"/>
			<rect x="231.9" y="399.8" class="st1" width="98.3" height="13"/>
			<path class="st1" d="M413.1,26H148.5v24.7h-24.7v24.9H98.9V486h264.7v-24.9h24.9v-24.7h24.7V26H413.1z M351,473H111.4V88.5H351
				V473z M375.9,448.1h-12.4V75.6H136.4v-12h239.5V448.1z M400.6,423.5h-12.1V50.7H161V39h239.5v384.5H400.6z"/>
		</g>
	</g>
</g>
</svg>
